<?xml version="1.0" encoding="utf-8"?>
<!-- Generator: Adobe Illustrator 24.1.0, SVG Export Plug-In . SVG Version: 6.00 Build 0)  -->
<svg viewBox="0 0 360 96" fill="none" xmlns="http://www.w3.org/2000/svg">
<path d="M318.97 82.88C340.133 82.88 357.29 65.7235 357.29 44.56C357.29 23.3964 340.133 6.23999 318.97 6.23999C297.806 6.23999 280.65 23.3964 280.65 44.56C280.65 65.7235 297.806 82.88 318.97 82.88Z" stroke="white" stroke-width="4" stroke-miterlimit="10"/>
<path d="M318.72 7.76999H316.69V81.87H318.72V7.76999Z" fill="white" stroke="white" stroke-miterlimit="10"/>
<path d="M318.21 25.53L349.68 65.12L348.66 68.16L318.21 29.59V25.53Z" fill="white" stroke="white" stroke-miterlimit="10"/>
<path d="M318.93 42.5L342.57 73.24L340.54 74.25L318.93 46.12V42.5Z" fill="white" stroke="white" stroke-miterlimit="10"/>
<path d="M303.61 26.52C303.61 26.52 303.61 23.47 306.66 23.47C306.66 23.47 309.71 23.47 309.71 26.52" stroke="white" stroke-width="2.5" stroke-miterlimit="10"/>
<path d="M303.61 40.73C303.61 40.73 303.61 37.68 306.66 37.68C306.66 37.68 309.71 37.68 309.71 40.73" stroke="white" stroke-width="2.5" stroke-miterlimit="10"/>
<path d="M252.14 71.72C246.84 74.95 240.65 76.81 234.05 76.81C214.39 76.81 198.45 60.38 198.45 40.1C198.45 19.82 214.38 3.39999 234.04 3.39999C240.78 3.39999 247.09 5.32999 252.46 8.68999" stroke="white" stroke-width="4" stroke-miterlimit="10"/>
<path d="M228.96 13.13H226.31V40.55H228.96V13.13Z" fill="white" stroke="white" stroke-width="0.75" stroke-miterlimit="10"/>
<path d="M199.77 42.32L224.54 74.16L228.07 75.04L199.77 38.78V42.32Z" fill="white" stroke="white" stroke-miterlimit="10"/>
<path d="M235.02 42.08C235.02 42.08 235.02 39.43 237.67 39.43C237.67 39.43 240.32 39.43 240.32 42.08" stroke="white" stroke-width="2.5" stroke-miterlimit="10"/>
<path d="M264.34 51.16H226.31V53.37H264.34V51.16Z" fill="white" stroke="white" stroke-miterlimit="10"/>
<path d="M234.27 52.93L255.49 79.46V75.93L236.92 52.93H234.27Z" fill="white" stroke="white" stroke-miterlimit="10"/>
<path d="M245.76 52.93L255.49 65.31V61.77L248.58 53.04L245.76 52.93Z" fill="white" stroke="white" stroke-miterlimit="10"/>
<path d="M257.72 52.93H255.49V94.5H257.72V52.93Z" fill="white" stroke="white" stroke-miterlimit="10"/>
<path d="M261.68 67.97H263.89V81.24H261.68C261.68 81.23 261.68 67.7 261.68 67.97Z" fill="white" stroke="white" stroke-miterlimit="10"/>
<path d="M144.99 5H143.15V81.5H144.99V5Z" fill="white" stroke="white" stroke-width="1.5" stroke-miterlimit="10"/>
<path d="M192.93 79.66H145V81.5H192.93V79.66Z" fill="white" stroke="white" stroke-width="1.5" stroke-miterlimit="10"/>
<path d="M145 57.54L161.59 79.66H158.82L145 61.22V57.54Z" fill="white" stroke="white" stroke-width="1.5" stroke-miterlimit="10"/>
<path d="M145 47.4L169.88 79.66L172.96 79.65L145 43.71V47.4Z" fill="white" stroke="white" stroke-width="1.5" stroke-miterlimit="10"/>
<path d="M187.39 74.7C187.39 74.7 187.39 71.93 190.16 71.93C190.16 71.93 192.93 71.93 192.93 74.7" stroke="white" stroke-width="2.5" stroke-miterlimit="10"/>
<path d="M63.6201 5.5H66.5101V56.54C66.5101 56.54 70.3601 83.04 94.9001 82.55C94.9001 82.55 122.81 82.55 124.73 54.08V5.99H127.62V54.09C127.62 54.09 125.7 85.5 94.9001 85.5C94.9001 85.5 66.5101 85.99 63.6201 56.54V5.5V5.5Z" fill="white" stroke="white" stroke-miterlimit="10"/>
<path d="M73.2402 45.75V59.49C73.2402 59.49 79.9802 77.16 95.3802 75.2C95.3802 75.2 110.78 77.16 117.03 59V46.24L115.59 48.69L114.63 59.49C114.63 59.49 108.86 74.21 95.3802 73.23C95.3802 73.23 82.8702 76.17 75.6502 59L74.6902 47.22L73.2402 45.75Z" fill="white" stroke="white" stroke-width="0.5" stroke-miterlimit="10"/>
<path d="M74.2002 46.73L95.3802 70.28L115.59 48.69L115.1 52.13L95.3802 73.23L74.6802 50.16L74.2002 46.73Z" fill="white" stroke="white" stroke-width="0.5" stroke-miterlimit="10"/>
<path d="M96.3302 31.02H94.4102V48.69H96.3302V31.02Z" fill="white"/>
<path d="M95.3803 54.58C98.567 54.58 101.15 51.9429 101.15 48.69C101.15 45.437 98.567 42.8 95.3803 42.8C92.1937 42.8 89.6104 45.437 89.6104 48.69C89.6104 51.9429 92.1937 54.58 95.3803 54.58Z" stroke="white" stroke-width="2" stroke-miterlimit="10"/>
<path d="M92.4902 10.41C92.4902 10.41 92.4902 7.47 95.3802 7.47C95.3802 7.47 98.2702 7.47 98.2702 10.41" stroke="white" stroke-width="2.5" stroke-miterlimit="10"/>
<path d="M92.23 21.49C92.23 21.49 92.23 18.55 95.12 18.55C95.12 18.55 98.01 18.55 98.01 21.49" stroke="white" stroke-width="2.5" stroke-miterlimit="10"/>
<path d="M106.93 75.03H83.8301V75.19H106.93V75.03Z" fill="white" stroke="white" stroke-miterlimit="10"/>
<path d="M10.9797 1.75H8.17969V86.5H10.9797V1.75Z" fill="white"/>
<path d="M10.98 36.49L34.8 6.84L37.91 7.86L10.98 40.94V36.49Z" fill="white"/>
<path d="M4.75977 63.44L32.7298 63.85V65.89H4.75977" fill="white"/>
<path d="M32.47 72C36.6176 72 39.98 68.6959 39.98 64.62C39.98 60.5441 36.6176 57.24 32.47 57.24C28.3223 57.24 24.96 60.5441 24.96 64.62C24.96 68.6959 28.3223 72 32.47 72Z" stroke="white" stroke-width="3" stroke-miterlimit="10"/>
<path d="M2.68992 1.75H29.0999C29.0999 1.75 58.0999 6.33 40.4899 40.95C40.4899 40.95 69.4899 59.28 37.8999 86.26H2.68992L2.16992 83.71H4.75992H35.3199C35.3199 83.71 66.9099 59.78 34.7999 41.46C34.7999 41.46 56.5499 10.92 27.0299 4.3H4.75992H2.16992L2.68992 1.75Z" fill="white"/>
<path d="M4.7599 1.75H1.6499V86.25H4.7599V1.75Z" fill="white"/>
</svg>
